{
  "Modules": {
    "Element": [
      {
        "NameOfElement": "AccountsSearchField",
        "ElementProperty": {
          "Type": "xpath",
          "Value": "//*[@name='textFilter']"
        }
      },
      {
        "NameOfElement": "MyHealthSearchResult",
        "ElementProperty": {
          "Type": "xpath",
          "Value": "//*[@id=\"main\"]/div[3]/div[2]/table/tbody/tr/td[2]/a"
        }
      },
      {
        "NameOfElement": "SearchButton",
        "ElementProperty": {
          "Type": "xpath",
          "Value": "//*[@type='button' and @data-action='search']"
        }
      },
      {
        "NameOfElement": "MyHealthOption",
        "ElementProperty": {
          "Type": "xpath",
          "Value": "//*[@data-name='name']/div"
        }
      },
      {
        "NameOfElement": "OverviewNameField",
        "ElementProperty": {
          "Type": "xpath",
          "Value": "//*[@type='text' and @name='name']"
        }
      },
      {
        "NameOfElement": "SearchedAccountsData",
        "ElementProperty": {
          "Type": "xpath",
          "Value": "//*[@id=\"main\"]/div[3]/div[2]/table/tbody/tr/td[2]/a"
        }
      },
      {
        "NameOfElement": "EditButton",
        "ElementProperty": {
          "Type": "xpath",
          "Value": "//*[@data-action='edit']"
        }
      },
      {
        "NameOfElement": "SaveButton",
        "ElementProperty": {
          "Type": "xpath",
          "Value": "//*[@data-action='save']"
        }
      },
      {
        "NameOfElement": "OverviewEmailField",
        "ElementProperty": {
          "Type": "xpath",
          "Value": "//*[@type='email']"
        }
      },
      {
        "NameOfElement": "OverviewPhoneField",
        "ElementProperty": {
          "Type": "xpath",
          "Value": "//*[contains(@class,'phone-number-block')]/input"
        }
      },
      {
        "NameOfElement": "OverviewWebsiteField",
        "ElementProperty": {
          "Type": "xpath",
          "Value": "//*[@name='website']"
        }
      },
      {
        "NameOfElement": "OverviewNameDisplay",
        "ElementProperty": {
          "Type": "xpath",
          "Value": "//div[@data-name=\"name\" and @class='field']"
        }
      },
      {
        "NameOfElement": "OverviewEmailDisplay",
        "ElementProperty": {
          "Type": "xpath",
          "Value": "//*[@class='field']/div/a/span"
        }
      },
      {
        "NameOfElement": "OverviewPhoneNumberDisplay",
        "ElementProperty": {
          "Type": "xpath",
          "Value": "//div[@data-name=\"name\" and @class='field']"
        }
      },
      {
        "NameOfElement": "ResetButton",
        "ElementProperty": {
          "Type": "xpath",
          "Value": "//button[@data-action='reset']"
        }
      },
      {
        "NameOfElement": "SearchedAccountsData",
        "ElementProperty": {
          "Type": "xpath",
          "Value": "//*[@id=\"main\"]/div[3]/div[2]/table/tbody/tr/td[2]/a"
        }
      }
    ],
    "_xmlns:xsi": "http://www.w3.org/2001/XMLSchema-instance",
    "_xsi:type": "Modules"
  }
}
